第2部 R言語のデータ処理
…
まとめ: ggplot2

グラフ描画ライブラリ

機能はもっと豊富

dplyrでデータ変形

大きいデータを扱うライブラリ

library(nycflights13)
flights

## # A tibble: 336,776 × 19
##     year month   day dep_time sched_dep_time dep_delay arr_time
##    <int> <int> <int>    <int>          <int>     <dbl>    <int>
## 1   2013     1     1      517            515         2      830
## 2   2013     1     1      533            529         4      850
## 3   2013     1     1      542            540         2      923
## 4   2013     1     1      544            545        -1     1004
## 5   2013     1     1      554            600        -6      812
## 6   2013     1     1      554            558        -4      740
## 7   2013     1     1      555            600        -5      913
## 8   2013     1     1      557            600        -3      709
## 9   2013     1     1      557            600        -3      838
## 10  2013     1     1      558            600        -2      753
## # ... with 336,766 more rows, and 12 more variables: sched_arr_time <int>,
## #   arr_delay <dbl>, carrier <chr>, flight <int>, tailnum <chr>,
## #   origin <chr>, dest <chr>, air_time <dbl>, distance <dbl>, hour <dbl>,
## #   minute <dbl>, time_hour <dttm>
…
filter (行の抽出)

filter(flights, air_time < 100) #100分未満のフライト

## # A tibble: 105,687 × 19
##     year month   day dep_time sched_dep_time dep_delay arr_time
##    <int> <int> <int>    <int>          <int>     <dbl>    <int>
## 1   2013     1     1      557            600        -3      709
## 2   2013     1     1      559            559         0      702
## 3   2013     1     1      629            630        -1      721
## 4   2013     1     1      629            630        -1      824
## 5   2013     1     1      632            608        24      740
## 6   2013     1     1      639            640        -1      739
## 7   2013     1     1      643            645        -2      837
## 8   2013     1     1      645            647        -2      815
## 9   2013     1     1      732            735        -3      857
## 10  2013     1     1      733            736        -3      854
## # ... with 105,677 more rows, and 12 more variables: sched_arr_time <int>,
## #   arr_delay <dbl>, carrier <chr>, flight <int>, tailnum <chr>,
## #   origin <chr>, dest <chr>, air_time <dbl>, distance <dbl>, hour <dbl>,
## #   minute <dbl>, time_hour <dttm>

select (列の抽出)

select(flights, dep_time, arr_time) # 離発着時刻

## # A tibble: 336,776 × 2
##    dep_time arr_time
##       <int>    <int>
## 1       517      830
## 2       533      850
## 3       542      923
## 4       544     1004
## 5       554      812
## 6       554      740
## 7       555      913
## 8       557      709
## 9       557      838
## 10      558      753
## # ... with 336,766 more rows
…
arrange (並び替え)

arrange(flights, desc(arr_delay)) # 遅れた順

## # A tibble: 336,776 × 19
##     year month   day dep_time sched_dep_time dep_delay arr_time
##    <int> <int> <int>    <int>          <int>     <dbl>    <int>
## 1   2013     1     9      641            900      1301     1242
## 2   2013     6    15     1432           1935      1137     1607
## 3   2013     1    10     1121           1635      1126     1239
## 4   2013     9    20     1139           1845      1014     1457
## 5   2013     7    22      845           1600      1005     1044
## 6   2013     4    10     1100           1900       960     1342
## 7   2013     3    17     2321            810       911      135
## 8   2013     7    22     2257            759       898      121
## 9   2013    12     5      756           1700       896     1058
## 10  2013     5     3     1133           2055       878     1250
## # ... with 336,766 more rows, and 12 more variables: sched_arr_time <int>,
## #   arr_delay <dbl>, carrier <chr>, flight <int>, tailnum <chr>,
## #   origin <chr>, dest <chr>, air_time <dbl>, distance <dbl>, hour <dbl>,
## #   minute <dbl>, time_hour <dttm>

mutate (新しい列)

f <- select(flights, distance, air_time) # 距離と時間
mutate(f, speed = distance / air_time) # 速さ

## # A tibble: 336,776 × 3
##    distance air_time    speed
##       <dbl>    <dbl>    <dbl>
## 1      1400      227 6.167401
## 2      1416      227 6.237885
## 3      1089      160 6.806250
## 4      1576      183 8.612022
## 5       762      116 6.568966
## 6       719      150 4.793333
## 7      1065      158 6.740506
## 8       229       53 4.320755
## 9       944      140 6.742857
## 10      733      138 5.311594
## # ... with 336,766 more rows
…
group_by

flights %>%
  group_by(dest) %>% # 目的地ごとに
  summarise(delay = mean(arr_delay, na.rm=TRUE)) # 平均遅れ

## # A tibble: 105 × 2
##     dest     delay
##    <chr>     <dbl>
## 1    ABQ  4.381890
## 2    ACK  4.852273
## 3    ALB 14.397129
## 4    ANC -2.500000
## 5    ATL 11.300113
## 6    AUS  6.019909
## 7    AVL  8.003831
## 8    BDL  7.048544
## 9    BGR  8.027933
## 10   BHM 16.877323
## # ... with 95 more rows
…
